D:\Work\Apache Spark for Java Developers\Practicals\Practicals\Module3\Code (1)\End of chapter workspaces\Chapter 08\SparkModule3\src\main\java\com\virtualpairprogrammers\streaming\LoggingServer.java
D:\Work\Apache Spark for Java Developers\Practicals\Practicals\Module3\Code (1)\End of chapter workspaces\Chapter 08\SparkModule3\src\main\java\com\virtualpairprogrammers\streaming\LogStreamAnalysis.java
D:\Work\Apache Spark for Java Developers\Practicals\Practicals\Module3\Code (1)\End of chapter workspaces\Chapter 08\SparkModule3\src\main\java\com\virtualpairprogrammers\streaming\ViewingFiguresDStream.java
D:\Work\Apache Spark for Java Developers\Practicals\Practicals\Module3\Code (1)\End of chapter workspaces\Chapter 08\SparkModule3\src\main\java\com\virtualpairprogrammers\linear\regression\GymCompetitors.java
D:\Work\Apache Spark for Java Developers\Practicals\Practicals\Module3\Code (1)\End of chapter workspaces\Chapter 08\SparkModule3\src\main\java\com\virtualpairprogrammers\linear\regression\HousePriceAnalysis.java
D:\Work\Apache Spark for Java Developers\Practicals\Practicals\Module3\Code (1)\End of chapter workspaces\Chapter 08\SparkModule3\src\main\java\com\virtualpairprogrammers\k\means\clustering\GymCompetitorsClustering.java
D:\Work\Apache Spark for Java Developers\Practicals\Practicals\Module3\Code (1)\End of chapter workspaces\Chapter 08\SparkModule3\src\main\java\com\virtualpairprogrammers\decision\trees\VPPChapterViews.java
D:\Work\Apache Spark for Java Developers\Practicals\Practicals\Module3\Code (1)\End of chapter workspaces\Chapter 08\SparkModule3\src\main\java\com\virtualpairprogrammers\linear\regression\VPPChapterViews.java
D:\Work\Apache Spark for Java Developers\Practicals\Practicals\Module3\Code (1)\End of chapter workspaces\Chapter 08\SparkModule3\src\main\java\com\virtualpairprogrammers\logistic\regression\VPPChapterViewLogisticReg.java
D:\Work\Apache Spark for Java Developers\Practicals\Practicals\Module3\Code (1)\End of chapter workspaces\Chapter 08\SparkModule3\src\main\java\com\virtualpairprogrammers\recommender\systems\VPPCourseRecommendations.java
D:\Work\Apache Spark for Java Developers\Practicals\Practicals\Module3\Code (1)\End of chapter workspaces\Chapter 08\SparkModule3\src\main\java\com\virtualpairprogrammers\HousePriceFields.java
D:\Work\Apache Spark for Java Developers\Practicals\Practicals\Module3\Code (1)\End of chapter workspaces\Chapter 08\SparkModule3\src\main\java\com\virtualpairprogrammers\streaming\ViewingFiguresStructuredStream.java
